#include "sv_freezetag.qh"

#include <common/resources/sv_resources.qh>
#include <server/elimination.qh>

float autocvar_g_freezetag_frozen_maxtime;
float autocvar_g_freezetag_revive_clearspeed;
float autocvar_g_freezetag_round_timelimit;
//int autocvar_g_freezetag_teams;
int autocvar_g_freezetag_teams_override;
float autocvar_g_freezetag_warmup;

float autocvar_g_ft_start_health = 100;
float autocvar_g_ft_start_armor = 100;
float autocvar_g_ft_start_ammo_shells = 60;
float autocvar_g_ft_start_ammo_nails = 320;
float autocvar_g_ft_start_ammo_rockets = 160;
float autocvar_g_ft_start_ammo_cells = 180;
float autocvar_g_ft_start_ammo_plasma = 180;
float autocvar_g_ft_start_ammo_fuel = 0;

void freezetag_count_alive_players()
{
	total_players = 0;
	for (int i = 1; i <= NUM_TEAMS; ++i)
	{
		Team_SetNumberOfAlivePlayers(Team_GetTeamFromIndex(i), 0);
	}
	FOREACH_CLIENT(IS_PLAYER(it) && Entity_HasValidTeam(it),
	{
		++total_players;
		if (GetResource(it, RES_HEALTH) < 1 || STAT(FROZEN, it) == FROZEN_NORMAL)
		{
			continue;
		}
		entity team_ = Entity_GetTeam(it);
		int num_alive = Team_GetNumberOfAlivePlayers(team_);
		++num_alive;
		Team_SetNumberOfAlivePlayers(team_, num_alive);
	});
	FOREACH_CLIENT(IS_REAL_CLIENT(it),
	{
		STAT(REDALIVE, it) = Team_GetNumberOfAlivePlayers(Team_GetTeamFromIndex(1));
		STAT(BLUEALIVE, it) = Team_GetNumberOfAlivePlayers(Team_GetTeamFromIndex(2));
		STAT(YELLOWALIVE, it) = Team_GetNumberOfAlivePlayers(Team_GetTeamFromIndex(3));
		STAT(PINKALIVE, it) = Team_GetNumberOfAlivePlayers(Team_GetTeamFromIndex(4));
	});

	eliminatedPlayers.SendFlags |= 1;
}

bool freezetag_CheckTeams()
{
	static float prev_missing_teams_mask;
	if (Team_GetNumberOfAliveTeams() == NumTeams(freezetag_teams))
	{
		if(prev_missing_teams_mask > 0)
			Kill_Notification(NOTIF_ALL, NULL, MSG_CENTER, CPID_MISSING_TEAMS);
		prev_missing_teams_mask = -1;
		return true;
	}
	if(total_players == 0)
	{
		if(prev_missing_teams_mask > 0)
			Kill_Notification(NOTIF_ALL, NULL, MSG_CENTER, CPID_MISSING_TEAMS);
		prev_missing_teams_mask = -1;
		return false;
	}
	int missing_teams_mask = 0;
	for (int i = 1; i <= NUM_TEAMS; ++i)
	{
		if ((freezetag_teams & Team_IndexToBit(i)) &&
			(Team_GetNumberOfAlivePlayers(Team_GetTeamFromIndex(i)) == 0))
		{
			missing_teams_mask |= Team_IndexToBit(i);
		}
	}
	if(prev_missing_teams_mask != missing_teams_mask)
	{
		Send_Notification(NOTIF_ALL, NULL, MSG_CENTER, CENTER_MISSING_TEAMS, missing_teams_mask);
		prev_missing_teams_mask = missing_teams_mask;
	}
	return false;
}

void nades_Clear(entity);
void nades_GiveBonus(entity player, float score);

bool freezetag_CheckWinner()
{
	if(round_handler_GetEndTime() > 0 && round_handler_GetEndTime() - time <= 0)
	{
		Send_Notification(NOTIF_ALL, NULL, MSG_CENTER, CENTER_ROUND_OVER);
		Send_Notification(NOTIF_ALL, NULL, MSG_INFO, INFO_ROUND_OVER);
		FOREACH_CLIENT(IS_PLAYER(it), {
			it.freezetag_frozen_timeout = 0;
			it.freezetag_revive_time = 0;
			nades_Clear(it);
		});
		game_stopped = true;
		round_handler_Init(5, autocvar_g_freezetag_warmup, autocvar_g_freezetag_round_timelimit);
		return true;
	}

	int winner_team = Team_GetWinnerAliveTeam();
	if (!winner_team)
		return false;

	if(winner_team > 0)
	{
		Send_Notification(NOTIF_ALL, NULL, MSG_CENTER, APP_TEAM_NUM(winner_team, CENTER_ROUND_TEAM_WIN));
		Send_Notification(NOTIF_ALL, NULL, MSG_INFO, APP_TEAM_NUM(winner_team, INFO_ROUND_TEAM_WIN));
		TeamScore_AddToTeam(winner_team, ST_FT_ROUNDS, +1);
	}
	else if(winner_team == -1)
	{
		Send_Notification(NOTIF_ALL, NULL, MSG_CENTER, CENTER_ROUND_TIED);
		Send_Notification(NOTIF_ALL, NULL, MSG_INFO, INFO_ROUND_TIED);
	}

	FOREACH_CLIENT(IS_PLAYER(it), {
		it.freezetag_frozen_timeout = 0;
		it.freezetag_revive_time = 0;
		nades_Clear(it);
	});

	game_stopped = true;
	round_handler_Init(5, autocvar_g_freezetag_warmup, autocvar_g_freezetag_round_timelimit);
	return true;
}

entity freezetag_LastPlayerForTeam(entity this)
{
	entity last_pl = NULL;
	FOREACH_CLIENT(IS_PLAYER(it) && it != this && SAME_TEAM(it, this), {
		if (STAT(FROZEN, it) != FROZEN_NORMAL && GetResource(it, RES_HEALTH) >= 1)
		{
			if (!last_pl)
				last_pl = it;
			else
				return NULL;
		}
	});
	return last_pl;
}

void freezetag_LastPlayerForTeam_Notify(entity this)
{
	if(round_handler_IsActive())
	if(round_handler_IsRoundStarted())
	{
		entity pl = freezetag_LastPlayerForTeam(this);
		if(pl)
			Send_Notification(NOTIF_ONE, pl, MSG_CENTER, CENTER_ALONE);
	}
}

void freezetag_Add_Score(entity targ, entity attacker)
{
	if(attacker == targ)
	{
		// you froze your own dumb self
		// counted as "suicide" already
		GameRules_scoring_add(targ, SCORE, -1);
	}
	else if(IS_PLAYER(attacker))
	{
		// got frozen by an enemy
		// counted as "kill" and "death" already
		GameRules_scoring_add(targ, SCORE, -1);
		GameRules_scoring_add(attacker, SCORE, +1);
	}
	// else nothing - got frozen by the game type rules themselves
}

// to be called when the player is frozen by freezetag (on death, spectator join etc), gives the score
void freezetag_Freeze(entity targ, entity attacker)
{
	if(STAT(FROZEN, targ))
		return;

	targ.freezetag_frozen_time = time;
	if (autocvar_g_freezetag_revive_auto && autocvar_g_freezetag_frozen_maxtime > 0)
		targ.freezetag_frozen_timeout = time + autocvar_g_freezetag_frozen_maxtime;

	Freeze(targ, 0, FROZEN_NORMAL, true);

	freezetag_count_alive_players();

	freezetag_Add_Score(targ, attacker);
}

bool freezetag_isEliminated(entity e)
{
	if(IS_PLAYER(e) && (STAT(FROZEN, e) == FROZEN_NORMAL || IS_DEAD(e)))
		return true;
	return false;
}


// ================
// Bot player logic
// ================

void(entity this) havocbot_role_ft_freeing;
void(entity this) havocbot_role_ft_offense;

void havocbot_goalrating_ft_freeplayers(entity this, float ratingscale, vector org, float sradius)
{
	entity best_pl = NULL;
	float best_dist2 = FLOAT_MAX;
	FOREACH_CLIENT(IS_PLAYER(it) && it != this && SAME_TEAM(it, this), {
		if (STAT(FROZEN, it) == FROZEN_NORMAL)
		{
			if(vdist(it.origin - org, >, sradius))
				continue;
			navigation_routerating(this, it, ratingscale, 2000);
		}
		else if (best_dist2
			&& GetResource(it, RES_HEALTH) < GetResource(this, RES_HEALTH) + 30
			&& vlen2(it.origin - org) < best_dist2)
		{
			// If teamate is not frozen still seek them out as fight better
			// in a group.
			best_dist2 = vlen2(it.origin - org);
			if (best_dist2 < 700 ** 2)
			{
				best_pl = NULL;
				best_dist2 = 0; // already close to a teammate
			}
			else
				best_pl = it;
		}
	});
	if (best_pl)
		navigation_routerating(this, best_pl, ratingscale / 2, 2000);
}

void havocbot_role_ft_offense(entity this)
{
	if(IS_DEAD(this))
		return;

	if (!this.havocbot_role_timeout)
		this.havocbot_role_timeout = time + random() * 10 + 20;

	// Count how many players on team are unfrozen.
	int unfrozen = 0;
	FOREACH_CLIENT(IS_PLAYER(it) && SAME_TEAM(it, this) && STAT(FROZEN, it) != FROZEN_NORMAL, {
		unfrozen++;
	});

	// If only one left on team or if role has timed out then start trying to free players.
	if ((!unfrozen && STAT(FROZEN, this) != FROZEN_NORMAL) || time > this.havocbot_role_timeout)
	{
		LOG_TRACE("changing role to freeing");
		this.havocbot_role = havocbot_role_ft_freeing;
		this.havocbot_role_timeout = 0;
		return;
	}

	if (navigation_goalrating_timeout(this))
	{
		navigation_goalrating_start(this);
		havocbot_goalrating_items(this, 12000, this.origin, 10000);
		havocbot_goalrating_enemyplayers(this, 10000, this.origin, 10000);
		havocbot_goalrating_ft_freeplayers(this, 9000, this.origin, 10000);
		havocbot_goalrating_waypoints(this, 1, this.origin, 3000);
		navigation_goalrating_end(this);

		navigation_goalrating_timeout_set(this);
	}
}

void havocbot_role_ft_freeing(entity this)
{
	if(IS_DEAD(this))
		return;

	if (!this.havocbot_role_timeout)
		this.havocbot_role_timeout = time + random() * 10 + 20;

	if (time > this.havocbot_role_timeout)
	{
		LOG_TRACE("changing role to offense");
		this.havocbot_role = havocbot_role_ft_offense;
		this.havocbot_role_timeout = 0;
		return;
	}

	if (navigation_goalrating_timeout(this))
	{
		navigation_goalrating_start(this);
		havocbot_goalrating_items(this, 10000, this.origin, 10000);
		havocbot_goalrating_enemyplayers(this, 5000, this.origin, 10000);
		havocbot_goalrating_ft_freeplayers(this, 20000, this.origin, 10000);
		havocbot_goalrating_waypoints(this, 1, this.origin, 3000);
		navigation_goalrating_end(this);

		navigation_goalrating_timeout_set(this);
	}
}


// ==============
// Hook Functions
// ==============

void ft_RemovePlayer(entity this)
{
	if (STAT(FROZEN, this) != FROZEN_NORMAL)
		freezetag_LastPlayerForTeam_Notify(this);
	Unfreeze(this, false);

	SetResourceExplicit(this, RES_HEALTH, 0); // neccessary to correctly count alive players
	freezetag_count_alive_players();
}

MUTATOR_HOOKFUNCTION(ft, ClientDisconnect)
{
	entity player = M_ARGV(0, entity);

	ft_RemovePlayer(player);
	return true;
}

MUTATOR_HOOKFUNCTION(ft, MakePlayerObserver)
{
	entity player = M_ARGV(0, entity);

	ft_RemovePlayer(player);
}

MUTATOR_HOOKFUNCTION(ft, PlayerDies)
{
	entity frag_attacker = M_ARGV(1, entity);
	entity frag_target = M_ARGV(2, entity);
	float frag_deathtype = M_ARGV(3, float);

	if(round_handler_IsActive())
	if(round_handler_CountdownRunning())
	{
		if (STAT(FROZEN, frag_target) == FROZEN_NORMAL)
			Unfreeze(frag_target, true);
		freezetag_count_alive_players();
		frag_target.respawn_time = time;
		frag_target.respawn_flags |= RESPAWN_FORCE;
		return true;
	}

	frag_target.respawn_time = time + 1;
	frag_target.respawn_flags |= RESPAWN_FORCE;

	// Cases DEATH_TEAMCHANGE and DEATH_AUTOTEAMCHANGE are needed to fix a bug whe
	// you succeed changing team through the menu: you both really die (gibbing) and get frozen
	if(ITEM_DAMAGE_NEEDKILL(frag_deathtype)
		|| frag_deathtype == DEATH_TEAMCHANGE.m_id || frag_deathtype == DEATH_AUTOTEAMCHANGE.m_id)
	{
		// let the player die, he will be automatically frozen when he respawns
		if (STAT(FROZEN, frag_target) != FROZEN_NORMAL)
		{
			freezetag_Add_Score(frag_target, frag_attacker);
			freezetag_count_alive_players();
			freezetag_LastPlayerForTeam_Notify(frag_target);
			frag_target.freezetag_frozen_timeout = -2; // freeze on respawn
		}
		else
		{
			float t = frag_target.freezetag_frozen_timeout;
			float t2 = frag_target.freezetag_frozen_time;
			Unfreeze(frag_target, false); // remove ice
			// keep timeout value so it can be restored when player will be refrozen on respawn
			// NOTE this can't be exactly -2 since game starts from time 2
			frag_target.freezetag_frozen_timeout = -t;
			frag_target.freezetag_frozen_time = t2;
		}
		return true;
	}

	if (STAT(FROZEN, frag_target) == FROZEN_NORMAL)
		return true;

	freezetag_Freeze(frag_target, frag_attacker);
	freezetag_LastPlayerForTeam_Notify(frag_target);

	if(frag_attacker == frag_target || frag_attacker == NULL)
	{
		if(IS_PLAYER(frag_target))
			Send_Notification(NOTIF_ONE, frag_target, MSG_CENTER, CENTER_FREEZETAG_SELF);
		Send_Notification(NOTIF_ALL, NULL, MSG_INFO, INFO_FREEZETAG_SELF, frag_target.netname);
	}
	else
	{
		Send_Notification(NOTIF_ALL, NULL, MSG_INFO, INFO_FREEZETAG_FREEZE, frag_target.netname, frag_attacker.netname);
	}

	return true;
}

MUTATOR_HOOKFUNCTION(ft, PlayerSpawn)
{
	entity player = M_ARGV(0, entity);

	if(player.freezetag_frozen_timeout == -1) // if PlayerSpawn is called by reset_map_players
		return true; // do nothing, round is starting right now

	if(player.freezetag_frozen_timeout <= -2) // player was dead
	{
		float t = player.freezetag_frozen_timeout;
		float t2 = player.freezetag_frozen_time;
		freezetag_Freeze(player, NULL);
		if (t < -2)
		{
			player.freezetag_frozen_timeout = -t;
			player.freezetag_frozen_time = t2;
		}
		return true;
	}

	freezetag_count_alive_players();

	if(round_handler_IsActive())
	if(round_handler_IsRoundStarted())
	{
		Send_Notification(NOTIF_ONE, player, MSG_CENTER, CENTER_FREEZETAG_SPAWN_LATE);
		freezetag_Freeze(player, NULL);
	}

	return true;
}

MUTATOR_HOOKFUNCTION(ft, reset_map_players)
{
	FOREACH_CLIENT(IS_PLAYER(it), {
		CS(it).killcount = 0;
		it.freezetag_revive_time = 0;
		it.freezetag_frozen_timeout = -1;
		PutClientInServer(it);
		it.freezetag_frozen_timeout = 0;
	});
	freezetag_count_alive_players();
	return true;
}

MUTATOR_HOOKFUNCTION(ft, GiveFragsForKill, CBC_ORDER_FIRST)
{
	M_ARGV(2, float) = 0; // no frags counted in Freeze Tag
	return true;
}

MUTATOR_HOOKFUNCTION(ft, Unfreeze)
{
	entity targ = M_ARGV(0, entity);
	targ.freezetag_frozen_time = 0;
	targ.freezetag_frozen_timeout = 0;
}

MUTATOR_HOOKFUNCTION(ft, Damage_Calculate)
{
	entity frag_attacker = M_ARGV(1, entity);
	entity frag_target = M_ARGV(2, entity);
	//float frag_deathtype = M_ARGV(3, float);
	//float frag_damage = M_ARGV(4, float);
	vector frag_force = M_ARGV(6, vector);

	if (STAT(FROZEN, frag_target) == FROZEN_NORMAL && autocvar_g_freezetag_revive_auto_reducible
		&& autocvar_g_freezetag_frozen_maxtime > 0 && autocvar_g_freezetag_revive_auto)
	{
		float t = 0;
		if ((autocvar_g_freezetag_revive_auto_reducible < 0 || DIFF_TEAM(frag_attacker, frag_target))
			&& frag_target.freezetag_frozen_timeout > time)
		{
			if (fabs(autocvar_g_freezetag_revive_auto_reducible) == 1)
			{
				float maxforce = autocvar_g_freezetag_revive_auto_reducible_maxforce;
				t = vlen(frag_force);
				// limit hit force considered at once, e.g when you have the Strength
				// powerup but also with weapons that fire multiple projectiles at once (crylink)
				if (frag_target.freezetag_frozen_force + t > maxforce)
				{
					t = max(0, maxforce - frag_target.freezetag_frozen_force);
					frag_target.freezetag_frozen_force = maxforce;
				}
				else
					frag_target.freezetag_frozen_force += t;
				t *= autocvar_g_freezetag_revive_auto_reducible_forcefactor;
			}
			frag_target.freezetag_frozen_timeout -= t;
			if (frag_target.freezetag_frozen_timeout < time)
				frag_target.freezetag_frozen_timeout = time;
		}
	}
}

#ifdef IN_REVIVING_RANGE
	#undef IN_REVIVING_RANGE
#endif

#define IN_REVIVING_RANGE(player, it, revive_extra_size) \
	(it != player && !IS_DEAD(it) && SAME_TEAM(it, player) \
	&& boxesoverlap(player.absmin - revive_extra_size, player.absmax + revive_extra_size, it.absmin, it.absmax))

MUTATOR_HOOKFUNCTION(ft, PlayerPreThink, CBC_ORDER_FIRST)
{
	if(game_stopped)
		return true;

	if(round_handler_IsActive())
	if(!round_handler_IsRoundStarted())
		return true;

	entity player = M_ARGV(0, entity);
	//if (STAT(FROZEN, player) == FROZEN_NORMAL)
	//if(player.freezetag_frozen_timeout > 0 && time < player.freezetag_frozen_timeout)
		//player.iceblock.alpha = ICE_MIN_ALPHA + (ICE_MAX_ALPHA - ICE_MIN_ALPHA) * (player.freezetag_frozen_timeout - time) / (player.freezetag_frozen_timeout - player.freezetag_frozen_time);

	player.freezetag_frozen_force = 0;

	if (!(frametime && IS_PLAYER(player)))
		return true;

	entity revivers_last = NULL;
	entity revivers_first = NULL;

	bool player_is_reviving = false;
	int n = 0;
	vector revive_extra_size = '1 1 1' * autocvar_g_freezetag_revive_extra_size;
	FOREACH_CLIENT(IS_PLAYER(it), {
		// check if player is reviving anyone
		if (STAT(FROZEN, it) == FROZEN_NORMAL)
		{
			if ((STAT(FROZEN, player) == FROZEN_NORMAL))
				continue;
			if (!IN_REVIVING_RANGE(player, it, revive_extra_size))
				continue;
			player_is_reviving = true;
			break;
		}

		if (!(STAT(FROZEN, player) == FROZEN_NORMAL))
			continue; // both player and it are NOT frozen
		if (!IN_REVIVING_RANGE(player, it, revive_extra_size))
			continue;

		// found a teammate that is reviving player
		if (autocvar_g_freezetag_revive_time_to_score > 0 && STAT(FROZEN, player) == FROZEN_NORMAL)
		{
			it.freezetag_revive_time += frametime / autocvar_g_freezetag_revive_time_to_score;
			while (it.freezetag_revive_time > 1)
			{
				GameRules_scoring_add(it, SCORE, +1);
				it.freezetag_revive_time -= 1;
			}
		}
		if (revivers_last)
			revivers_last.chain = it;
		revivers_last = it;
		if (!revivers_first)
			revivers_first = it;
		++n;
	});
	if (revivers_last)
		revivers_last.chain = NULL;

	// allow normal revival during automatic revival
	// (if we wouldn't allow it then freezetag_frozen_timeout should be checked too in the previous loop)
	//if (STAT(FROZEN, player) == FROZEN_NORMAL) // redundant check
	if (!n && player.freezetag_frozen_timeout > 0 && time >= player.freezetag_frozen_timeout)
		n = -1;

	float base_progress = 0;
	if  (STAT(FROZEN, player) == FROZEN_NORMAL && autocvar_g_freezetag_revive_auto
		&& autocvar_g_freezetag_frozen_maxtime > 0 && autocvar_g_freezetag_revive_auto_progress)
	{
		// NOTE if auto-revival is in progress, manual revive speed is reduced so that it always takes the same amount of time
		base_progress = bound(0, (1 - (player.freezetag_frozen_timeout - time) / autocvar_g_freezetag_frozen_maxtime), 1);
	}

	if (!n) // no teammate nearby
	{
		float clearspeed = autocvar_g_freezetag_revive_clearspeed;
		if (STAT(FROZEN, player) == FROZEN_NORMAL)
		{
			if (autocvar_g_freezetag_revive_time_to_score > 0)
			{
				if (STAT(REVIVE_PROGRESS, player) > base_progress)
				{
					// reduce auto-revival time based on manual revival progress
					base_progress = STAT(REVIVE_PROGRESS, player);
					player.freezetag_frozen_timeout = time + autocvar_g_freezetag_frozen_maxtime * (1 - STAT(REVIVE_PROGRESS, player));
				}
				// don't clear revive progress, it would allow stacking points
				// by entering and exiting the revival zone many times
				STAT(REVIVE_PROGRESS, player) = base_progress;
			}
			else
				STAT(REVIVE_PROGRESS, player) = bound(base_progress, STAT(REVIVE_PROGRESS, player) - frametime * clearspeed * (1 - base_progress), 1);
		}
		else if (!STAT(FROZEN, player) && !player_is_reviving)
			STAT(REVIVE_PROGRESS, player) = base_progress; // thawing nobody
	}
	else if (STAT(FROZEN, player) == FROZEN_NORMAL) // OK, there is at least one teammate reviving us
	{
		float spd = autocvar_g_freezetag_revive_speed_t2s;
		if (autocvar_g_freezetag_revive_time_to_score <= 0)
			spd = autocvar_g_freezetag_revive_speed * (1 - base_progress);
		STAT(REVIVE_PROGRESS, player) = bound(base_progress, STAT(REVIVE_PROGRESS, player) + frametime * max(1/60, spd), 1);

		if(STAT(REVIVE_PROGRESS, player) >= 1)
		{
			float frozen_time = time - player.freezetag_frozen_time;
			Unfreeze(player, false);
			SetResourceExplicit(player, RES_HEALTH, ((warmup_stage) ? warmup_start_health : start_health));
			player.spawnshieldtime = time + autocvar_g_freezetag_revive_spawnshield;
			freezetag_count_alive_players();

			if(n == -1)
			{
				if(autocvar_sv_eventlog)
					GameLogEcho(strcat(":ft:autorevival:", ftos(player.playerid)));
				Send_Notification(NOTIF_ONE, player, MSG_CENTER, CENTER_FREEZETAG_AUTO_REVIVED, frozen_time);
				Send_Notification(NOTIF_ALL, NULL, MSG_INFO, INFO_FREEZETAG_AUTO_REVIVED, player.netname, frozen_time);
				return true;
			}

			// EVERY team mate nearby gets a point (even if multiple!)
			for(entity it = revivers_first; it; it = it.chain)
			{
				GameRules_scoring_add(it, FREEZETAG_REVIVALS, +1);
				if (autocvar_g_freezetag_revive_time_to_score <= 0)
					GameRules_scoring_add(it, SCORE, +1);
				nades_GiveBonus(it, autocvar_g_nades_bonus_score_low);
			}

			Send_Notification(NOTIF_ONE, player, MSG_CENTER, CENTER_FREEZETAG_REVIVED, revivers_first.netname);
			Send_Notification(NOTIF_ONE, revivers_first, MSG_CENTER, CENTER_FREEZETAG_REVIVE, player.netname);
			Send_Notification(NOTIF_ALL, NULL, MSG_INFO, INFO_FREEZETAG_REVIVED, player.netname, revivers_first.netname);
			if(autocvar_sv_eventlog)
			{
				string revivers = "";
				for(entity it = revivers_first; it; it = it.chain)
					revivers = strcat(revivers, ftos(it.playerid), ",");
				revivers = substring(revivers, 0, strlen(revivers) - 1);
				GameLogEcho(strcat(":ft:revival:", ftos(player.playerid), ":", revivers));
			}
		}

		for(entity it = revivers_first; it; it = it.chain)
			STAT(REVIVE_PROGRESS, it) = STAT(REVIVE_PROGRESS, player);
	}

	if (STAT(FROZEN, player) == FROZEN_NORMAL)
	{
		entity player_wp = player.waypointsprite_attached;
		if (n > 0 || (n == 0 && STAT(REVIVE_PROGRESS, player) > 0.95))
		{
			WaypointSprite_UpdateSprites(player_wp, WP_Reviving, WP_Null, WP_Null);
			WaypointSprite_UpdateTeamRadar(player_wp, RADARICON_WAYPOINT, WP_REVIVING_COLOR);
		}
		else
		{
			WaypointSprite_UpdateSprites(player_wp, WP_Frozen, WP_Null, WP_Null);
			WaypointSprite_UpdateTeamRadar(player_wp, RADARICON_WAYPOINT, WP_FROZEN_COLOR);
		}

		WaypointSprite_UpdateMaxHealth(player_wp, 1);
		WaypointSprite_UpdateHealth(player_wp, STAT(REVIVE_PROGRESS, player));
	}

	return true;
}

MUTATOR_HOOKFUNCTION(ft, SetStartItems)
{
	start_items &= ~(IT_UNLIMITED_AMMO | IT_UNLIMITED_SUPERWEAPONS);
	if(!cvar("g_use_ammunition"))
		start_items |= IT_UNLIMITED_AMMO;

	start_health       = warmup_start_health       = autocvar_g_ft_start_health;
	start_armorvalue   = warmup_start_armorvalue   = autocvar_g_ft_start_armor;
	start_ammo_shells  = warmup_start_ammo_shells  = autocvar_g_ft_start_ammo_shells;
	start_ammo_nails   = warmup_start_ammo_nails   = autocvar_g_ft_start_ammo_nails;
	start_ammo_rockets = warmup_start_ammo_rockets = autocvar_g_ft_start_ammo_rockets;
	start_ammo_cells   = warmup_start_ammo_cells   = autocvar_g_ft_start_ammo_cells;
	start_ammo_plasma  = warmup_start_ammo_plasma  = autocvar_g_ft_start_ammo_plasma;
	start_ammo_fuel    = warmup_start_ammo_fuel    = autocvar_g_ft_start_ammo_fuel;
}

MUTATOR_HOOKFUNCTION(ft, HavocBot_ChooseRole)
{
	entity bot = M_ARGV(0, entity);

	if (!IS_DEAD(bot))
	{
		if (random() < 0.5)
			bot.havocbot_role = havocbot_role_ft_freeing;
		else
			bot.havocbot_role = havocbot_role_ft_offense;
	}

	// if bots spawn all at once assign them a more appropriated role after a while
	if (time < CS(bot).jointime + 1)
		bot.havocbot_role_timeout = time + 10 + random() * 10;

	return true;
}

MUTATOR_HOOKFUNCTION(ft, TeamBalance_CheckAllowedTeams, CBC_ORDER_EXCLUSIVE)
{
	M_ARGV(0, float) = freezetag_teams;
	return true;
}

MUTATOR_HOOKFUNCTION(ft, SetWeaponArena)
{
	if(M_ARGV(0, string) == "0" || M_ARGV(0, string) == "")
		M_ARGV(0, string) = autocvar_g_freezetag_weaponarena;
}

MUTATOR_HOOKFUNCTION(ft, FragCenterMessage)
{
	entity frag_attacker = M_ARGV(0, entity);
	entity frag_target = M_ARGV(1, entity);
	//float frag_deathtype = M_ARGV(2, float);
	int kill_count_to_attacker = M_ARGV(3, int);
	int kill_count_to_target = M_ARGV(4, int);

	if(STAT(FROZEN, frag_target) == FROZEN_NORMAL)
		return; // target was already frozen, so this is just pushing them off the cliff

	Send_Notification(NOTIF_ONE, frag_attacker, MSG_CHOICE, CHOICE_FRAG_FREEZE, frag_target.netname, kill_count_to_attacker, (IS_BOT_CLIENT(frag_target) ? -1 : CS(frag_target).ping));
	Send_Notification(NOTIF_ONE, frag_target, MSG_CHOICE, CHOICE_FRAGGED_FREEZE, frag_attacker.netname, kill_count_to_target,
		GetResource(frag_attacker, RES_HEALTH), GetResource(frag_attacker, RES_ARMOR), (IS_BOT_CLIENT(frag_attacker) ? -1 : CS(frag_attacker).ping));

	return true;
}

MUTATOR_HOOKFUNCTION(ft, SV_ParseServerCommand)
{
	string cmd_name = M_ARGV(0, string);
	if (cmd_name == "shuffleteams")
		shuffleteams_on_reset_map = !(round_handler_IsActive() && !round_handler_IsRoundStarted());
	return false;
}

MUTATOR_HOOKFUNCTION(ft, Scores_CountFragsRemaining)
{
	// announce remaining frags
	return true;
}

void freezetag_Initialize()
{
	freezetag_teams = autocvar_g_freezetag_teams_override;
	if(freezetag_teams < 2)
		freezetag_teams = cvar("g_freezetag_teams"); // read the cvar directly as it gets written earlier in the same frame

	freezetag_teams = BITS(bound(2, freezetag_teams, 4));
	GameRules_scoring(freezetag_teams, SFL_SORT_PRIO_PRIMARY, 0, {
		field_team(ST_FT_ROUNDS, "rounds", SFL_SORT_PRIO_PRIMARY);
		field(SP_FREEZETAG_REVIVALS, "revivals", 0);
	});

	round_handler_Spawn(freezetag_CheckTeams, freezetag_CheckWinner, func_null);
	round_handler_Init(5, autocvar_g_freezetag_warmup, autocvar_g_freezetag_round_timelimit);

	EliminatedPlayers_Init(freezetag_isEliminated);
}
